spring/aop/RunBeforeExecution.class
spring/aop/MyService.class
spring/aop/AOPDemo.class
spring/aop/MyServiceImpl.class
spring/aop/IntroductionDemo.class
spring/aop/MethodCallCounterAspect.class
spring/aop/MyBusinessService.class
spring/aop/MethodCallCountImpl.class
spring/aop/MethodCallCount.class
